unit3/barrel_shifter/barrel_shifter_lr.vcd
$date
  Thu Nov 22 09:11:00 2012
$end
$version
  GHDL v0
$end
$timescale
  1 fs
$end
$var reg 8 ! a[7:0] $end
$var reg 3 " amt[2:0] $end
$var reg 1 # lr $end
$scope module uut $end
$var reg 8 $ a[7:0] $end
$var reg 8 % y[7:0] $end
$var reg 3 & amt[2:0] $end
$var reg 1 ' lr $end
$var reg 8 ( sl0[7:0] $end
$var reg 8 ) sl1[7:0] $end
$var reg 8 * sr0[7:0] $end
$var reg 8 + sr1[7:0] $end
$var reg 8 , lo[7:0] $end
$var reg 8 - ro[7:0] $end
$upscope $end
$enddefinitions $end
#0
b00100000 !
b000 "
0#
b00100000 $
b00100000 %
b000 &
0'
b00100000 (
b00100000 )
b00100000 *
b00100000 +
b00100000 ,
b00100000 -
#10000000
b001 "
b01000000 %
b001 &
b01000000 (
b01000000 )
b00010000 *
b00010000 +
b01000000 ,
b00010000 -
#20000000
b010 "
b10000000 %
b010 &
b00100000 (
b10000000 )
b00100000 *
b00001000 +
b10000000 ,
b00001000 -
#30000000
b011 "
b00000001 %
b011 &
b01000000 (
b00000001 )
b00010000 *
b00000100 +
b00000001 ,
b00000100 -
#40000000
b100 "
b00000010 %
b100 &
b00100000 (
b00100000 )
b00100000 *
b00100000 +
b00000010 ,
b00000010 -
#50000000
b101 "
b00000100 %
b101 &
b01000000 (
b01000000 )
b00010000 *
b00010000 +
b00000100 ,
b00000001 -
#60000000
b110 "
b00001000 %
b110 &
b00100000 (
b10000000 )
b00100000 *
b00001000 +
b00001000 ,
b10000000 -
#70000000
b111 "
b00010000 %
b111 &
b01000000 (
b00000001 )
b00010000 *
b00000100 +
b00010000 ,
b01000000 -
#80000000
b000 "
1#
b00100000 %
b000 &
1'
b00100000 (
b00100000 )
b00100000 *
b00100000 +
b00100000 ,
b00100000 -
#90000000
b001 "
b00010000 %
b001 &
b01000000 (
b01000000 )
b00010000 *
b00010000 +
b01000000 ,
b00010000 -
#100000000
b010 "
b00001000 %
b010 &
b00100000 (
b10000000 )
b00100000 *
b00001000 +
b10000000 ,
b00001000 -
#110000000
b011 "
b00000100 %
b011 &
b01000000 (
b00000001 )
b00010000 *
b00000100 +
b00000001 ,
b00000100 -
#120000000
b100 "
b00000010 %
b100 &
b00100000 (
b00100000 )
b00100000 *
b00100000 +
b00000010 ,
b00000010 -
#130000000
b101 "
b00000001 %
b101 &
b01000000 (
b01000000 )
b00010000 *
b00010000 +
b00000100 ,
b00000001 -
#140000000
b110 "
b10000000 %
b110 &
b00100000 (
b10000000 )
b00100000 *
b00001000 +
b00001000 ,
b10000000 -
#150000000
b111 "
b01000000 %
b111 &
b01000000 (
b00000001 )
b00010000 *
b00000100 +
b00010000 ,
b01000000 -
